[
    {
        "nama":"tas",
        "indexCollection": 2,
        "namarecord":"record1.m4a"
    },
    {
        "nama":"buku",
        "indexCollection": 3,
        "namarecord":"record1.m4a"
    },
    {
        "nama":"api",
        "indexCollection": 4,
        "namarecord":"record1.m4a"
    },{
        "nama":"mngaan",
        "indexCollection": 5,
        "namarecord":"record1.m4a"
    },
    {
        "nama":"tas",
        "indexCollection": 2,
        "namarecord":"record1.m4a"
    },
    {
        "nama":"buku",
        "indexCollection": 3,
        "namarecord":"record1.m4a"
    },
    {
        "nama":"api",
        "indexCollection": 4,
        "namarecord":"record1.m4a"
    },{
        "nama":"mngaan",
        "indexCollection": 5,
        "namarecord":"record1.m4a"
    },
]
